<p><a href="#" onclick="window.open('http://www.nhl.com', '_blank', 'location=yes');">_blank</a></p>

On confix.xml:

< access origin="*" browserOnly="true"/>
< gap:plugin name="org.apache.cordova.inappbrowser" />
< gap:plugin name="org.apache.cordova.geolocation" />

On index.html:

< script src="cordova.js">< /script>

On my userdef.js:

function openDeviceBrowser (externalLinkToOpen){  window.open(externalLinkToOpen, '_system', 'location=no');}

and the link:

< a href="#" onclick="openDeviceBrowser ('http://www.google.de/')">Link< /a>


$(document).on('mousedown','a', function(e) {
            e.preventDefault();
            var elem = $(this);
            var url = elem.attr('href');
            if (url.indexOf('http://') !== -1) {
                alert("caught");
                window.open(url, '_system');
            }
        });
