{
    "prepare_queue": {
        "installed": [],
        "uninstalled": []
    },
    "config_munge": {
        "files": {}
    },
    "installed_plugins": {
        "cordova-plugin-splashscreen": {
            "PACKAGE_NAME": "net.ricokareem.biohealing"
        },
        "org.apache.cordova.inappbrowser": {
            "PACKAGE_NAME": "net.ricokareem.biohealing"
        }
    },
    "dependent_plugins": {}
}